…
Get the point-in-time memento crawl list

Providing an URL in the search field of the Wayback Machine results in the interactive browser version to the calender view. Th dates with archived content are blue or green (redirected URL) circled. The bigger the circles the more snapshots were archived on these dates.

We get these dated crawl list with the second observation of the get_mementos function. The execution of the next code chunk can take several moments, depending how many pages of the URL are archived. Be aware that the Wayback server is strained by this query, so do not repeat it several times but store the result on your hard disk.

staticgen_tm <- get_timemap(staticgen_mntos$link[2])
staticgen_tm

## # A tibble: 845 x 5
##    rel      link                       type        from          datetime       
##    <chr>    <chr>                      <chr>       <chr>         <chr>          
##  1 original http://staticgen.com:80/   <NA>        <NA>          <NA>           
##  2 self     http://web.archive.org/we… applicatio… Thu, 05 Sep … <NA>           
##  3 timegate http://web.archive.org     <NA>        <NA>          <NA>           
##  4 first m… http://web.archive.org/we… <NA>        <NA>          Thu, 05 Sep 20…
##  5 memento  http://web.archive.org/we… <NA>        <NA>          Sun, 06 Oct 20…
##  6 memento  http://web.archive.org/we… <NA>        <NA>          Wed, 06 Nov 20…
##  7 memento  http://web.archive.org/we… <NA>        <NA>          Mon, 25 Nov 20…
##  8 memento  http://web.archive.org/we… <NA>        <NA>          Thu, 26 Dec 20…
##  9 memento  http://web.archive.org/we… <NA>        <NA>          Mon, 20 Jan 20…
## 10 memento  http://web.archive.org/we… <NA>        <NA>          Mon, 20 Jan 20…
## # … with 835 more rows
…
